# Datos Práctica 1 - Computación Paralela - Multiplicación de Matrices
# 			g35 - Samuel Alfageme Sainz - Pablo García Sanz 
# 		 Gº Ingeniería Informática - Universidad de Valladolid

# 1 procesador - Geopar
1 0.99980897
# 4 procesadores - Geopar
4 3.934829221
# 8 procesadores - Geopar
8 7.80027705
# 12 procesadores - Geopar
12 11.00314491